phyllum,subphyllum,class,order,suborder,family,subfamily,genus,species,display,authority
Arthropoda,,Insecta,Coleoptera,,,,,,Coleoptera,
Arthropoda,,Insecta,Coleoptera,,Dryopidae,,Helichus,,Helichus,
Arthropoda,,Insecta,Coleoptera,,Psephenidae,,Psephenus,,Psephenus,
Arthropoda,,Insecta,Coleoptera,,Haliplidae,,Haliplus,,Haliplus,
Arthropoda,,Insecta,Coleoptera,,Haliplidae,,Peltodytes,,Peltodytes,
Arthropoda,,Insecta,Coleoptera,,Gyrinidae,,Dinetus,,Dinetus,
Arthropoda,,Insecta,Coleoptera,,Gyrinidae,,Gyrinus,,Gyrinus,
Arthropoda,,Insecta,Coleoptera,,Elmidae,,Microcylloepus,,Microcylloepus,
Arthropoda,,Insecta,Coleoptera,,Elmidae,,,,Elmidae,
Arthropoda,,Insecta,Coleoptera,,Hydrophilidae,,,,Hydrophilidae,
Arthropoda,,Insecta,Coleoptera,,Hydrophilidae,,Berosus,,Berosus,
Arthropoda,,Insecta,Coleoptera,,Hydrophilidae,,Enochrus,,Enochrus,
Arthropoda,,Insecta,Coleoptera,,Hydrophilidae,,Hydrobius,,Hydrobius,
Arthropoda,,Insecta,Coleoptera,,Hydrophilidae,,Hydrochara,,Hydrochara,
Arthropoda,,Insecta,Coleoptera,,Hydrophilidae,,Laccobius,,Laccobius,
Arthropoda,,Insecta,Coleoptera,,Hydrophilidae,,Tropisternus,,Tropisternus,
Arthropoda,,Insecta,Coleoptera,,Dytiscidae,,Agabus,,Agabus,
Arthropoda,,Insecta,Coleoptera,,Dytiscidae,,Bidessus,,Bidessus,
Arthropoda,,Insecta,Coleoptera,,Dytiscidae,,Celina,,Celina,
Arthropoda,,Insecta,Coleoptera,,Dytiscidae,,Deronectes,,Deronectes,
Arthropoda,,Insecta,Coleoptera,,Dytiscidae,,Dytiscus,,Dytiscus,
Arthropoda,,Insecta,Coleoptera,,Dytiscidae,,Hydroporus,,Hydroporus,
Arthropoda,,Insecta,Coleoptera,,Dytiscidae,,Hydrotrupes,,Hydrotrupes,
Arthropoda,,Insecta,Coleoptera,,Dytiscidae,,Laccophilus,,Laccophilus,
Arthropoda,,Insecta,Coleoptera,,Dytiscidae,,Liodessus,,Liodessus,
Arthropoda,,Insecta,Coleoptera,,Dytiscidae,,Oreodytes,,Oreodytes,
Arthropoda,,Insecta,Coleoptera,,Dytiscidae,,Rhantus,,Rhantus,
Arthropoda,,Insecta,Coleoptera,,Dytiscidae,,Stictotarsus,,Stictotarsus,
Arthropoda,,Insecta,Coleoptera,,Dytiscidae,,Thermonectus,,Thermonectus,
Arthropoda,,Insecta,Coleoptera,,Dytiscidae,,,,Dytiscidae,
Arthropoda,,Insecta,Coleoptera,,Hydroscaphidae,,Hydroscapha,,Hydroscapha,
Arthropoda,,Insecta,Coleoptera,,Carabidae,,Bembidion,,Bembidion,
Arthropoda,,Insecta,Coleoptera,,Carabidae,,Schizogenius,,Schizogenius,
Arthropoda,,Insecta,Coleoptera,,Carabidae,,,,Carabidae,
Arthropoda,,Insecta,Coleoptera,,Chrysomelidae,,,,Chrysomelidae,
Arthropoda,,Insecta,Coleoptera,,Staphylinidae,,,,Staphylinidae,
Arthropoda,,Insecta,Diptera,,Tabanidae,,Tabanus,,Tabanus,
Arthropoda,,Insecta,Diptera,,Tabanidae,,,,Tabanidae,
Arthropoda,,Insecta,Diptera,,Muscidae,,,,Muscidae,
Arthropoda,,Insecta,Diptera,,Ceratopogonidae,,,,Ceratopogonidae,
Arthropoda,,Insecta,Diptera,,Ceratopogonidae,,Atrichopogon,,Atrichopogon,
Arthropoda,,Insecta,Diptera,,Ceratopogonidae,,Bezzia,,Bezzia,
Arthropoda,,Insecta,Diptera,,Ceratopogonidae,,Culicoides,,Culicoides,
Arthropoda,,Insecta,Diptera,,Ceratopogonidae,,Dasyhelea,,Dasyhelea,
Arthropoda,,Insecta,Diptera,,Ceratopogonidae,,Forcipomyia,,Forcipomyia,
Arthropoda,,Insecta,Diptera,,Ceratopogonidae,,Probezzia,,Probezzia,
Arthropoda,,Insecta,Diptera,,Dixidae,,Dixella,,Dixella,
Arthropoda,,Insecta,Diptera,,Dolichopodidae,,,,Dolichopodidae,
Arthropoda,,Insecta,Diptera,,Empididae,,Hemerodromia,,Hemerodromia,
Arthropoda,,Insecta,Diptera,,Empididae,,,,Empididae,
Arthropoda,,Insecta,Diptera,,Ephydridae,,Parydra,,Parydra,
Arthropoda,,Insecta,Diptera,,Ephydridae,,Setacera,,Setacera,
Arthropoda,,Insecta,Diptera,,Ephydridae,,,,Ephydridae,
Arthropoda,,Insecta,Diptera,,Simuliidae,,Prosimulium,,Prosimulium,
Arthropoda,,Insecta,Diptera,,Simuliidae,,Simulium,,Simulium,
Arthropoda,,Insecta,Diptera,,Tipulidae,,Cryptolabis,,Cryptolabis,
Arthropoda,,Insecta,Diptera,,Tipulidae,,Hexatoma,,Hexatoma,
Arthropoda,,Insecta,Diptera,,Tipulidae,,Ormosia,,Ormosia,
Arthropoda,,Insecta,Diptera,,Tipulidae,,,,Tipulidae,
Arthropoda,,Insecta,Diptera,,Tipulidae,,Tipula,,Tipula,
Arthropoda,,Insecta,Diptera,,Stratiomyiidae,,Euparyphus,,Euparyphus,
Arthropoda,,Insecta,Diptera,,Stratiomyiidae,,Caloparyphus,,Caloparyphus,
Arthropoda,,Insecta,Diptera,,Stratiomyiidae,,,,Stratiomyiidae,
Arthropoda,,Insecta,Diptera,,Stratiomyiidae,,Odontomyia,,Odontomyia,
Arthropoda,,Insecta,Diptera,,Chironomidae,,,,Chironomidae,
Arthropoda,,Insecta,Diptera,,Chironomidae,Tanypodinae,,,Tanypodinae,
Arthropoda,,Insecta,Diptera,,Chironomidae,Tanypodinae,Pentaneurini,,Pentaneurini,
Arthropoda,,Insecta,Diptera,,Chironomidae,Orthocladiinae,,,Orthocladiinae,
Arthropoda,,Insecta,Diptera,,Chironomidae,Orthocladiinae,Brillia,,Brillia,
Arthropoda,,Insecta,Diptera,,Chironomidae,Orthocladiinae,Cardiocladius,,Cardiocladius,
Arthropoda,,Insecta,Diptera,,Chironomidae,Orthocladiinae,Corynoneura,,Corynoneura,
Arthropoda,,Insecta,Diptera,,Chironomidae,Orthocladiinae,Cricotopus,,Cricotopus,
Arthropoda,,Insecta,Diptera,,Chironomidae,Orthocladiinae,Eukiefferiella,,Eukiefferiella,
Arthropoda,,Insecta,Diptera,,Chironomidae,Orthocladiinae,Krenomittia,,Krenomittia,
Arthropoda,,Insecta,Diptera,,Chironomidae,Orthocladiinae,Lopescladius,,Lopescladius,
Arthropoda,,Insecta,Diptera,,Chironomidae,Orthocladiinae,Thienemanniella,,Thienemanniella,
Arthropoda,,Insecta,Diptera,,Chironomidae,Chironominae,,,Chironominae,
Arthropoda,,Insecta,Diptera,,Chironomidae,Chironominae,Chironomus,,Chironomus,
Arthropoda,,Insecta,Diptera,,Chironomidae,Chironominae,Dicrotendipes,,Dicrotendipes,
Arthropoda,,Insecta,Diptera,,Chironomidae,Chironominae,Paratendipes,,Paratendipes,
Arthropoda,,Insecta,Diptera,,Chironomidae,Chironominae,Polypedilum,,Polypedilum,
Arthropoda,,Insecta,Diptera,,Chironomidae,Chironominae,Microtendipes,,Microtendipes,
Arthropoda,,Insecta,Diptera,,Chironomidae,Chironominae,Micropsectra,,Micropsectra,
Arthropoda,,Insecta,Diptera,,Chironomidae,Chironominae,Tanytarsini,,Tanytarsini,
Arthropoda,,Insecta,Diptera,,Chironomidae,Chironominae,Tribelos,,Tribelos,
Arthropoda,,Insecta,Diptera,,Chironomidae,Chironomini,,,Chironomini,
Arthropoda,,Insecta,Diptera,,Chironomidae,Chironomini,Endochironomus,,Endochironomus,
Arthropoda,,Insecta,Diptera,,Culicidae,,Anopheles,,Anopheles,
Arthropoda,,Insecta,Diptera,,Culicidae,,Culex,,Culex,
Arthropoda,,Insecta,Diptera,,Culicidae,,Culiseta,,Culiseta,
Arthropoda,,Insecta,Diptera,,Cecidiomyiidae,,,,Cecidiomyiidae,
Arthropoda,,Insecta,Diptera,,Psychodidae,,Marunia,,Marunia,
Arthropoda,,Insecta,Diptera,,Corethrellidae,,Corethrella,,Corethrella,
Arthropoda,,Insecta,Diptera,,Sphaeroceridae,,Leptocera,,Leptocera,
Arthropoda,,Insecta,Diptera,,Syrphidae,,Epistrophe,,Epistrophe,
Arthropoda,,Insecta,Diptera,,Stratiomyidae,,,,Stratiomyidae,
Arthropoda,,Insecta,Diptera,,,,,,Diptera,
Arthropoda,,Insecta,Ephemeroptera,,,,,,Ephemeroptera,
Arthropoda,,Insecta,Ephemeroptera,,Tricorythidae,,Leptohyphes,,Leptohyphes,
Arthropoda,,Insecta,Ephemeroptera,,Tricorythidae,,Tricorythodes,,Tricorythodes,
Arthropoda,,Insecta,Ephemeroptera,,Tricorythidae,,,,Tricorythidae,
Arthropoda,,Insecta,Ephemeroptera,,Caenidae,,Caenis,,Caenis,
Arthropoda,,Insecta,Ephemeroptera,,Siphlonuridae,,Siphlonurus,,Siphlonurus,
Arthropoda,,Insecta,Ephemeroptera,,Leptophlebiidae,,Paralleptophlebia,,Paralleptophlebia,
Arthropoda,,Insecta,Ephemeroptera,,Leptophlebiidae,,Thraulodes,,Thraulodes,
Arthropoda,,Insecta,Ephemeroptera,,Baetidae,,,,Baetidae,
Arthropoda,,Insecta,Ephemeroptera,,Baetidae,,Baetis,,Baetis,
Arthropoda,,Insecta,Ephemeroptera,,Baetidae,,Baetodes,,Baetodes,
Arthropoda,,Insecta,Ephemeroptera,,Baetidae,,Callibaetis,,Callibaetis,
Arthropoda,,Insecta,Ephemeroptera,,Baetidae,,Centroptilum,,Centroptilum,
Arthropoda,,Insecta,Ephemeroptera,,Baetidae,,Cloeodes,,Cloeodes,
Arthropoda,,Insecta,Ephemeroptera,,Baetidae,,Fallceon,,Fallceon,
Arthropoda,,Insecta,Hemiptera,,,,,,Hemiptera,
Arthropoda,,Insecta,Hemiptera,,Belostomatidae,,Abedus,,Abedus,
Arthropoda,,Insecta,Hemiptera,,Fulgoromorpha,,,,Fulgoromorpha,
Arthropoda,,Insecta,Hemiptera,,Aphididae,,,,Aphididae,
Arthropoda,,Insecta,Hemiptera,,Cicadellidae,,,,Cicadellidae,
Arthropoda,,Insecta,Hemiptera,,Naucoridae,,Ambrysus,,Ambrysus,
Arthropoda,,Insecta,Hemiptera,,Corixidae,,Graptocorixia,,Graptocorixia,
Arthropoda,,Insecta,Hemiptera,,Corixidae,,Hesperocorixia,,Hesperocorixia,
Arthropoda,,Insecta,Hemiptera,,Corixidae,,Neocorixa,,Neocorixa,
Arthropoda,,Insecta,Hemiptera,,Corixidae,,,,Corixidae,
Arthropoda,,Insecta,Hemiptera,,Corixidae,,Tricorixia,,Tricorixia,
Arthropoda,,Insecta,Hemiptera,,Gelastocoridae,,,,Gelastocoridae,
Arthropoda,,Insecta,Hemiptera,,Veliidae,,Microvelia,,Microvelia,
Arthropoda,,Insecta,Hemiptera,,Veliidae,,Rhagovelia,,Rhagovelia,
Arthropoda,,Insecta,Hemiptera,,Veliidae,,,,Veliidae,
Arthropoda,,Insecta,Hemiptera,,Saldidae,,,,Saldidae,
Arthropoda,,Insecta,Hemiptera,,Nepidae,,Ranatra,,Ranatra,
Arthropoda,,Insecta,Hemiptera,,Notonectidae,,Buenoa,,Buenoa,
Arthropoda,,Insecta,Hemiptera,,Notonectidae,,Notonecta,,Notonecta,
Arthropoda,,Insecta,Hemiptera,,Notonectidae,,,,Notonectidae,
Arthropoda,,Insecta,Hemiptera,,Gerridae,,Gerris,,Gerris,
Arthropoda,,Insecta,Hemiptera,,Gerridae,,Trepobates,,Trepobates,
Arthropoda,,Insecta,Hemiptera,,Gerridae,,,,Gerridae,
Arthropoda,,Insecta,Hemiptera,,Nabidae,,Nabis,,Nabis,
Arthropoda,,Insecta,Hemiptera,,Hydrometridae,,,,Hydrometridae,
Arthropoda,,Insecta,Odonata,,,,,,Odonata,
Arthropoda,,Insecta,Odonata,Zygoptera,Calopterygidae,,Hetaerina,,Hetaerina,
Arthropoda,,Insecta,Odonata,Zygoptera,Coenagrionidae,,Argia,,Argia,
Arthropoda,,Insecta,Odonata,Zygoptera,Protoneuridae,,,,Protoneuridae,
Arthropoda,,Insecta,Odonata,Zygoptera,Lestidae,,Archilestes,,Archilestes,
Arthropoda,,Insecta,Odonata,Zygoptera,Lestidae,,Lestes,,Lestes,
Arthropoda,,Insecta,Odonata,Zygoptera,,,,,Zygoptera,
Arthropoda,,Insecta,Odonata,Anisoptera,Libellulidae,,Brechmorhoga,,Brechmorhoga,
Arthropoda,,Insecta,Odonata,Anisoptera,Libellulidae,,Micrathyria,,Micrathyria,
Arthropoda,,Insecta,Odonata,Anisoptera,Libellulidae,,Miathyria,,Miathyria,
Arthropoda,,Insecta,Odonata,Anisoptera,Libellulidae,,Pantala,,Pantala,
Arthropoda,,Insecta,Odonata,Anisoptera,Gomphidae,,Progomphus,,Progomphus,
Arthropoda,,Insecta,Odonata,Anisoptera,Gomphidae,,Ophiogomphus,,Ophiogomphus,
Arthropoda,,Insecta,Odonata,Anisoptera,Gomphidae,,Erpetogomphus,,Erpetogomphus,
Arthropoda,,Insecta,Odonata,Anisoptera,Gomphidae,,Phyllogomphoides,,Phyllogomphoides,
Arthropoda,,Insecta,Odonata,Anisoptera,Gomphidae,,,,Gomphidae,
Arthropoda,,Insecta,Odonata,Anisoptera,Corduliidae,,,,Corduliidae,
Arthropoda,,Insecta,Plecoptera,,Capniidae,,Mesocapnia,,Mesocapnia,
Arthropoda,,Insecta,Plecoptera,,Taeniopterygidae,,,,Taeniopterygidae,
Arthropoda,,Insecta,Trichoptera,,Polycentropodidae,,Polycentropus,,Polycentropus,
Arthropoda,,Insecta,Trichoptera,,Polycentropodidae,,Cernotonia,,Cernotonia,
Arthropoda,,Insecta,Trichoptera,,Hydroptilidae,,,,Hydroptilidae,
Arthropoda,,Insecta,Trichoptera,,Hydroptilidae,,Leucotrichia,,Leucotrichia,
Arthropoda,,Insecta,Trichoptera,,Hydroptilidae,,Ochrotrichia,,Ochrotrichia,
Arthropoda,,Insecta,Trichoptera,,Heliopsychidae,,Helicopsyche,,Helicopsyche,
Arthropoda,,Insecta,Trichoptera,,Odontoceridae,,Marilia,,Marilia,
Arthropoda,,Insecta,Trichoptera,,Limnephilidae,,Limnephilus,,Limnephilus,
Arthropoda,,Insecta,Trichoptera,,Glossosomatidae,,Culoptila,,Culoptila,
Arthropoda,,Insecta,Trichoptera,,Sericostomatidea,,Gumaga,,Gumaga,
Arthropoda,,Insecta,Trichoptera,,Hydropsychidae,,Cheumatopsyche,,Cheumatopsyche,
Arthropoda,,Insecta,Trichoptera,,Hydropsychidae,,Hydropsyche,,Hydropsyche,
Arthropoda,,Insecta,Trichoptera,,Hydropsychidae,,Ceratopsyche,,Ceratopsyche,
Arthropoda,,Insecta,Trichoptera,,Hydropsychidae,,,,Hydropsychidae,
Arthropoda,,Insecta,Trichoptera,,Philopotamidae,,Chimarra,,Chimarra,
Arthropoda,,Insecta,Trichoptera,,Philopotamidae,,,,Philopotamidae,
Arthropoda,,Insecta,Trichoptera,,Leptoceridae,,,,Leptoceridae,
Arthropoda,,Insecta,Trichoptera,,Leptoceridae,,Oecetis,,Oecetis,
Arthropoda,,Insecta,Trichoptera,,,,,,Trichoptera,
Arthropoda,,Insecta,Lepidoptera,,Pyralidae,,Paragyractis,,Paragyractis,
Arthropoda,,Insecta,Lepidoptera,,Pyralidae,,Petrophila,,Petrophila,
Arthropoda,,Insecta,Lepidoptera,,Pyralidae,,,,Pyralidae,
Arthropoda,,Insecta,Lepidoptera,,,,,,Lepidoptera,
Arthropoda,,Insecta,Megaloptera,,Corydalidae,,Codydalis,,Codydalis,
Arthropoda,,Insecta,Megaloptera,,Corydalidae,,Protochauliodes,,Protochauliodes,
Arthropoda,,,Collembola,,,,,,Collembola,
Arthropoda,,,Collembola,,Entomobryidae,,,,Entomobryidae,
Arthropoda,,,Collembola,,Hypogastruridae,,,,Hypogastruridae,
Arthropoda,,,Collembola,,Isotomidae,,,,Isotomidae,
Arthropoda,,Insecta,Thysanoptera,,Thripidae,,,,Thripidae,
Arthropoda,,Insecta,Hymenoptera,,Braconidae,,,,Braconidae,
Arthropoda,,Insecta,Hymenoptera,,Formicidae,,Pheidole,,Pheidole,
Arthropoda,,Insecta,Hymenoptera,,Mymaridae,,,,Mymaridae,
Arthropoda,,Insecta,Hymenoptera,,Pteromalidae,,,,Pteromalidae,
Arthropoda,,Insecta,Hymenoptera,,Scelionidae,,,,Scelionidae,
Arthropoda,,Insecta,Hymenoptera,,Trichogrammatidae,,,,Trichogrammatidae,
Arthropoda,Crustacea,Branchiopoda,Cladocera,,Chydoridae,,,,Chydoridae,
Arthropoda,Crustacea,Branchiopoda,Cladocera,,Daphniidae,,,,Daphniidae,
Arthropoda,Crustacea,Copepoda,,,,,,,Copepoda,
Arthropoda,Crustacea,Copepoda,Cyclopoida,,,,,,Cyclopoida,
Arthropoda,Crustacea,Copepoda,Harpacticoida,,Ameiridae,,,,Harpacticoida,
Arthropoda,Crustacea,Copepoda,Harpacticoida,,Parastenocarididae,,Parastenocaris,,Parastenocaris,
Arthropoda,Crustacea,Ostracoda,,,,,,,Ostracoda,
Arthropoda,Crustacea,Malacostraca,Isopoda,,Microparasellidae,,Microcharon,,Microcharon,
Arthropoda,Crustacea,Malacostraca,Amphipoda,,Crangonyctidae,,Stygobromus,,Stygobromus,
Arthropoda,Crustacea,Malacostraca,Amphipoda,,Talitridae,,Hyalella,,Hyalella,
Arthropoda,Crustacea,Malacostraca,Decapoda,,,,,,Crayfish,
Arthropoda,Crustacea,Malacostraca,Decapoda,,Astacidae,,Pacifastacus,,Pacifastacus,
Arthropoda,Crustacea,Malacostraca,Syncarida,,Parabathynellidae,,Iberobathynella,,Iberobathynella,
Arthropoda,Crustacea,Malacostraca,Syncarida,,Parabathynellidae,,Parabathynella,,Parabathynella,
Arthropoda,Chelicerata,Arachnida,Thrombidifromes,Hydrachnidia,Lebertiidae,,Lebertia,,Lebertia,
Arthropoda,Chelicerata,Arachnida,Thrombidifromes,Hydrachnidia,Lebertiidae,,,,Lebertiidae,
Arthropoda,Chelicerata,Arachnida,Thrombidifromes,Hydrachnidia,Oribatida,,,,Oribatida,
Arthropoda,Chelicerata,Arachnida,Thrombidifromes,Hydrachnidia,Sperchontidae,,,,Sperchontidae,
Arthropoda,Chelicerata,Arachnida,Thrombidifromes,Hydrachnidia,Stygothrombiidae,,,,Stygothrombiidae,
Arthropoda,Chelicerata,Arachnida,Thrombidifromes,Hydrachnidia,Hydrovolziidae,,,,Hydrovolziidae,
Arthropoda,Chelicerata,Arachnida,Thrombidifromes,Hydrachnidia,,,,,Hydrachnidia,
Arthropoda,Chelicerata,Arachnida,Araneae,Araneida,,,,,Araneida,
Arthropoda,Chelicerata,Arachnida,Araneae,Araneida,Dictynidae,,Dictyna,,Dictyna,
Arthropoda,Chelicerata,Arachnida,Araneae,Araneida,Lycosidae,,Allocosa,,Allocosa,
Arthropoda,Chelicerata,Arachnida,Araneae,Araneida,Pisauridae,,Dolomedes,,Dolomedes,
Arthropoda,Chelicerata,Arachnida,Araneae,Araneida,Tetragnathidae,,Tetragnatha,,Tetragnatha,
Plathyhelminthes,,Turbellaria,Tricladida,,Planariidae,,,,Planariidae,
Plathyhelminthes,,Turbellaria,Tricladida,,Planariidae,,Dugesia,,Dugesia,
Annelida,,Oligochaeta,,,,,,,Oligochaeta,
Annelida,,Oligochaeta,Haplotaxida,,Tubificidae,,,,Tubificidae,
Annelida,,Polychaeta,Hirudinea,,,,,,Hirudinea,
Mollusca,,Gastropoda,,,Physidae,,Physella,,Physella,
Mollusca,,Gastropoda,,,Physidae,,Physa,,Physa,
Mollusca,,Gastropoda,,,Physidae,,,,Physidae,
Mollusca,,Gastropoda,,,Planorbidae,,Ancylini,,Ancylini,
Mollusca,,Gastropoda,,,Planorbidae,,,,Planorbidae,
Rotifera,,,,,,,,,Rotifera,
Nematoda,,,,,,,,,Nematoda,
Nematomorpha,,,,,,,,,Nematomorpha,
Tardigrada,,,,,,,,,Tardigrada,
Cnidaria,,Hydrozoa,Anthoathecata,,Hydridae,,Hydra,,Hydra,
Chordata,,,,,,,,,Fish,
Arthropoda,,Insecta,Coleoptera,,Dytiscidae,Hydroporinae,Neoporus,,Neoporus,
Arthropoda,,Arachnida,Araneae,,,,,,Araneae,
Arthropoda,,Insecta,Diptera,,Stratiomyidae,,Myxosargus,,Myxosargus,
Arthropoda,,Insecta,Diptera,,Psychodidae,,Psychoda,,Psychoda,
Arthropoda,,Chilopoda,,,,,,,Chilopoda,
Arthropoda,,,Insecta,,Hydrophilidae,,Hydrophilus,,Hydrophilus,
Arthropoda,,Insecta,Coleoptera,,Dytiscidae,,Copelatus,,Copelatus,
Arthropoda,,Insecta,Plecoptera,,Capniidae,,,,Capniidae,
Arthropoda,,Insecta,Diptera,,Psychodidae,,,,Psychodidae,
